…
    rf <- (calcf
        %>% select(contains("r_", ignore.case=FALSE))
        %>% pivot_longer(!r_orig, names_to="method", values_to="r_new")
        %>% mutate(r_orig=r_orig*day, r_new=r_new*day
            , method=sub("r_", "", method)
        )
    )

    print(rf)

    ## # A tibble: 200 x 3
    ##     r_orig method   r_new
    ##      <dbl> <chr>    <dbl>
    ##  1 -0.1    offset -0.043 
    ##  2 -0.1    mult   -0.0416
    ##  3 -0.0980 offset -0.0410
    ##  4 -0.0980 mult   -0.0396
    ##  5 -0.0960 offset -0.0390
    ##  6 -0.0960 mult   -0.0376
    ##  7 -0.0939 offset -0.0369
    ##  8 -0.0939 mult   -0.0356
    ##  9 -0.0919 offset -0.0349
    ## 10 -0.0919 mult   -0.0335
    ## # … with 190 more rows
…
